%YAML 1.1
%TAG !u! tag:unity3d.com,2011:
--- !u!29 &1
OcclusionCullingSettings:
  m_ObjectHideFlags: 0
  serializedVersion: 2
  m_OcclusionBakeSettings:
    smallestOccluder: 5
    smallestHole: 0.25
    backfaceThreshold: 100
  m_SceneGUID: 00000000000000000000000000000000
  m_OcclusionCullingData: {fileID: 0}
--- !u!104 &2
RenderSettings:
  m_ObjectHideFlags: 0
  serializedVersion: 9
  m_Fog: 0
  m_FogColor: {r: 0.5, g: 0.5, b: 0.5, a: 1}
  m_FogMode: 3
  m_FogDensity: 0.01
  m_LinearFogStart: 0
  m_LinearFogEnd: 300
  m_AmbientSkyColor: {r: 0.212, g: 0.227, b: 0.259, a: 1}
  m_AmbientEquatorColor: {r: 0.114, g: 0.125, b: 0.133, a: 1}
  m_AmbientGroundColor: {r: 0.047, g: 0.043, b: 0.035, a: 1}
  m_AmbientIntensity: 1
  m_AmbientMode: 0
  m_SubtractiveShadowColor: {r: 0.42, g: 0.478, b: 0.627, a: 1}
  m_SkyboxMaterial: {fileID: 10304, guid: 0000000000000000f000000000000000, type: 0}
  m_HaloStrength: 0.5
  m_FlareStrength: 1
  m_FlareFadeSpeed: 3
  m_HaloTexture: {fileID: 0}
  m_SpotCookie: {fileID: 10001, guid: 0000000000000000e000000000000000, type: 0}
  m_DefaultReflectionMode: 0
  m_DefaultReflectionResolution: 128
  m_ReflectionBounces: 1
  m_ReflectionIntensity: 1
  m_CustomReflection: {fileID: 0}
  m_Sun: {fileID: 705507994}
  m_IndirectSpecularColor: {r: 0.44657898, g: 0.4964133, b: 0.5748178, a: 1}
  m_UseRadianceAmbientProbe: 0
--- !u!157 &3
LightmapSettings:
  m_ObjectHideFlags: 0
  serializedVersion: 12
  m_GIWorkflowMode: 1
  m_GISettings:
    serializedVersion: 2
    m_BounceScale: 1
    m_IndirectOutputScale: 1
    m_AlbedoBoost: 1
    m_EnvironmentLightingMode: 0
    m_EnableBakedLightmaps: 1
    m_EnableRealtimeLightmaps: 0
  m_LightmapEditorSettings:
    serializedVersion: 12
    m_Resolution: 2
    m_BakeResolution: 40
    m_AtlasSize: 1024
    m_AO: 0
    m_AOMaxDistance: 1
    m_CompAOExponent: 1
    m_CompAOExponentDirect: 0
    m_ExtractAmbientOcclusion: 0
    m_Padding: 2
    m_LightmapParameters: {fileID: 0}
    m_LightmapsBakeMode: 1
    m_TextureCompression: 1
    m_FinalGather: 0
    m_FinalGatherFiltering: 1
    m_FinalGatherRayCount: 256
    m_ReflectionCompression: 2
    m_MixedBakeMode: 2
    m_BakeBackend: 1
    m_PVRSampling: 1
    m_PVRDirectSampleCount: 32
    m_PVRSampleCount: 500
    m_PVRBounces: 2
    m_PVREnvironmentSampleCount: 500
    m_PVREnvironmentReferencePointCount: 2048
    m_PVRFilteringMode: 2
    m_PVRDenoiserTypeDirect: 0
    m_PVRDenoiserTypeIndirect: 0
    m_PVRDenoiserTypeAO: 0
    m_PVRFilterTypeDirect: 0
    m_PVRFilterTypeIndirect: 0
    m_PVRFilterTypeAO: 0
    m_PVREnvironmentMIS: 0
    m_PVRCulling: 1
    m_PVRFilteringGaussRadiusDirect: 1
    m_PVRFilteringGaussRadiusIndirect: 5
    m_PVRFilteringGaussRadiusAO: 2
    m_PVRFilteringAtrousPositionSigmaDirect: 0.5
    m_PVRFilteringAtrousPositionSigmaIndirect: 2
    m_PVRFilteringAtrousPositionSigmaAO: 1
    m_ExportTrainingData: 0
    m_TrainingDataDestination: TrainingData
    m_LightProbeSampleCountMultiplier: 4
  m_LightingDataAsset: {fileID: 0}
  m_LightingSettings: {fileID: 0}
--- !u!196 &4
NavMeshSettings:
  serializedVersion: 2
  m_ObjectHideFlags: 0
  m_BuildSettings:
    serializedVersion: 2
    agentTypeID: 0
    agentRadius: 0.5
    agentHeight: 2
    agentSlope: 45
    agentClimb: 0.4
    ledgeDropHeight: 0
    maxJumpAcrossDistance: 0
    minRegionArea: 2
    manualCellSize: 0
    cellSize: 0.16666667
    manualTileSize: 0
    tileSize: 256
    accuratePlacement: 0
    maxJobWorkers: 0
    preserveTilesOutsideBounds: 0
    debug:
      m_Flags: 0
  m_NavMeshData: {fileID: 0}
--- !u!1001 &38351198
PrefabInstance:
  m_ObjectHideFlags: 0
  serializedVersion: 2
  m_Modification:
    m_TransformParent: {fileID: 0}
    m_Modifications:
    - target: {fileID: 3267209798677969711, guid: 3ed173477e186df4e87e686fca6257fd, type: 3}
      propertyPath: m_RootOrder
      value: 9
      objectReference: {fileID: 0}
    - target: {fileID: 3267209798677969711, guid: 3ed173477e186df4e87e686fca6257fd, type: 3}
      propertyPath: m_LocalPosition.x
      value: 30.48
      objectReference: {fileID: 0}
    - target: {fileID: 3267209798677969711, guid: 3ed173477e186df4e87e686fca6257fd, type: 3}
      propertyPath: m_LocalPosition.y
      value: -6.6504
      objectReference: {fileID: 0}
    - target: {fileID: 3267209798677969711, guid: 3ed173477e186df4e87e686fca6257fd, type: 3}
      propertyPath: m_LocalPosition.z
      value: 59.47
      objectReference: {fileID: 0}
    - target: {fileID: 3267209798677969711, guid: 3ed173477e186df4e87e686fca6257fd, type: 3}
      propertyPath: m_LocalRotation.w
      value: 1
      objectReference: {fileID: 0}
    - target: {fileID: 3267209798677969711, guid: 3ed173477e186df4e87e686fca6257fd, type: 3}
      propertyPath: m_LocalRotation.x
      value: 0
      objectReference: {fileID: 0}
    - target: {fileID: 3267209798677969711, guid: 3ed173477e186df4e87e686fca6257fd, type: 3}
      propertyPath: m_LocalRotation.y
      value: 0
      objectReference: {fileID: 0}
    - target: {fileID: 3267209798677969711, guid: 3ed173477e186df4e87e686fca6257fd, type: 3}
      propertyPath: m_LocalRotation.z
      value: 0
      objectReference: {fileID: 0}
    - target: {fileID: 3267209798677969711, guid: 3ed173477e186df4e87e686fca6257fd, type: 3}
      propertyPath: m_LocalEulerAnglesHint.x
      value: 0
      objectReference: {fileID: 0}
    - target: {fileID: 3267209798677969711, guid: 3ed173477e186df4e87e686fca6257fd, type: 3}
      propertyPath: m_LocalEulerAnglesHint.y
      value: 0
      objectReference: {fileID: 0}
    - target: {fileID: 3267209798677969711, guid: 3ed173477e186df4e87e686fca6257fd, type: 3}
      propertyPath: m_LocalEulerAnglesHint.z
      value: 0
      objectReference: {fileID: 0}
    - target: {fileID: 6803971664933072451, guid: 3ed173477e186df4e87e686fca6257fd, type: 3}
      propertyPath: m_Name
      value: Env (7)
      objectReference: {fileID: 0}
    m_RemovedComponents: []
  m_SourcePrefab: {fileID: 100100000, guid: 3ed173477e186df4e87e686fca6257fd, type: 3}
--- !u!1001 &56416095
PrefabInstance:
  m_ObjectHideFlags: 0
  serializedVersion: 2
  m_Modification:
    m_TransformParent: {fileID: 0}
    m_Modifications:
    - target: {fileID: 3267209798677969711, guid: 3ed173477e186df4e87e686fca6257fd, type: 3}
      propertyPath: m_RootOrder
      value: 13
      objectReference: {fileID: 0}
    - target: {fileID: 3267209798677969711, guid: 3ed173477e186df4e87e686fca6257fd, type: 3}
      propertyPath: m_LocalPosition.x
      value: 53.6
      objectReference: {fileID: 0}
    - target: {fileID: 3267209798677969711, guid: 3ed173477e186df4e87e686fca6257fd, type: 3}
      propertyPath: m_LocalPosition.y
      value: -6.6504
      objectReference: {fileID: 0}
    - target: {fileID: 3267209798677969711, guid: 3ed173477e186df4e87e686fca6257fd, type: 3}
      propertyPath: m_LocalPosition.z
      value: -13.250256
      objectReference: {fileID: 0}
    - target: {fileID: 3267209798677969711, guid: 3ed173477e186df4e87e686fca6257fd, type: 3}
      propertyPath: m_LocalRotation.w
      value: 1
      objectReference: {fileID: 0}
    - target: {fileID: 3267209798677969711, guid: 3ed173477e186df4e87e686fca6257fd, type: 3}
      propertyPath: m_LocalRotation.x
      value: 0
      objectReference: {fileID: 0}
    - target: {fileID: 3267209798677969711, guid: 3ed173477e186df4e87e686fca6257fd, type: 3}
      propertyPath: m_LocalRotation.y
      value: 0
      objectReference: {fileID: 0}
    - target: {fileID: 3267209798677969711, guid: 3ed173477e186df4e87e686fca6257fd, type: 3}
      propertyPath: m_LocalRotation.z
      value: 0
      objectReference: {fileID: 0}
    - target: {fileID: 3267209798677969711, guid: 3ed173477e186df4e87e686fca6257fd, type: 3}
      propertyPath: m_LocalEulerAnglesHint.x
      value: 0
      objectReference: {fileID: 0}
    - target: {fileID: 3267209798677969711, guid: 3ed173477e186df4e87e686fca6257fd, type: 3}
      propertyPath: m_LocalEulerAnglesHint.y
      value: 0
      objectReference: {fileID: 0}
    - target: {fileID: 3267209798677969711, guid: 3ed173477e186df4e87e686fca6257fd, type: 3}
      propertyPath: m_LocalEulerAnglesHint.z
      value: 0
      objectReference: {fileID: 0}
    - target: {fileID: 6803971664933072451, guid: 3ed173477e186df4e87e686fca6257fd, type: 3}
      propertyPath: m_Name
      value: Env (8)
      objectReference: {fileID: 0}
    m_RemovedComponents: []
  m_SourcePrefab: {fileID: 100100000, guid: 3ed173477e186df4e87e686fca6257fd, type: 3}
--- !u!1 &705507993
GameObject:
  m_ObjectHideFlags: 0
  m_CorrespondingSourceObject: {fileID: 0}
  m_PrefabInstance: {fileID: 0}
  m_PrefabAsset: {fileID: 0}
  serializedVersion: 6
  m_Component:
  - component: {fileID: 705507995}
  - component: {fileID: 705507994}
  m_Layer: 0
  m_Name: Directional Light
  m_TagString: Untagged
  m_Icon: {fileID: 0}
  m_NavMeshLayer: 0
  m_StaticEditorFlags: 0
  m_IsActive: 1
--- !u!108 &705507994
Light:
  m_ObjectHideFlags: 0
  m_CorrespondingSourceObject: {fileID: 0}
  m_PrefabInstance: {fileID: 0}
  m_PrefabAsset: {fileID: 0}
  m_GameObject: {fileID: 705507993}
  m_Enabled: 1
  serializedVersion: 10
  m_Type: 1
  m_Shape: 0
  m_Color: {r: 1, g: 0.95686275, b: 0.8392157, a: 1}
  m_Intensity: 1
  m_Range: 10
  m_SpotAngle: 30
  m_InnerSpotAngle: 21.80208
  m_CookieSize: 10
  m_Shadows:
    m_Type: 2
    m_Resolution: -1
    m_CustomResolution: -1
    m_Strength: 1
    m_Bias: 0.05
    m_NormalBias: 0.4
    m_NearPlane: 0.2
    m_CullingMatrixOverride:
      e00: 1
      e01: 0
      e02: 0
      e03: 0
      e10: 0
      e11: 1
      e12: 0
      e13: 0
      e20: 0
      e21: 0
      e22: 1
      e23: 0
      e30: 0
      e31: 0
      e32: 0
      e33: 1
    m_UseCullingMatrixOverride: 0
  m_Cookie: {fileID: 0}
  m_DrawHalo: 0
  m_Flare: {fileID: 0}
  m_RenderMode: 0
  m_CullingMask:
    serializedVersion: 2
    m_Bits: 4294967295
  m_RenderingLayerMask: 1
  m_Lightmapping: 1
  m_LightShadowCasterMode: 0
  m_AreaSize: {x: 1, y: 1}
  m_BounceIntensity: 1
  m_ColorTemperature: 6570
  m_UseColorTemperature: 0
  m_BoundingSphereOverride: {x: 0, y: 0, z: 0, w: 0}
  m_UseBoundingSphereOverride: 0
  m_UseViewFrustumForShadowCasterCull: 1
  m_ShadowRadius: 0
  m_ShadowAngle: 0
--- !u!4 &705507995
Transform:
  m_ObjectHideFlags: 0
  m_CorrespondingSourceObject: {fileID: 0}
  m_PrefabInstance: {fileID: 0}
  m_PrefabAsset: {fileID: 0}
  m_GameObject: {fileID: 705507993}
  m_LocalRotation: {x: 0.40821788, y: -0.23456968, z: 0.10938163, w: 0.8754261}
  m_LocalPosition: {x: 0, y: 3, z: 0}
  m_LocalScale: {x: 1, y: 1, z: 1}
  m_Children: []
  m_Father: {fileID: 0}
  m_RootOrder: 1
  m_LocalEulerAnglesHint: {x: 50, y: -30, z: 0}
--- !u!1001 &870299063
PrefabInstance:
  m_ObjectHideFlags: 0
  serializedVersion: 2
  m_Modification:
    m_TransformParent: {fileID: 0}
    m_Modifications:
    - target: {fileID: 3267209798677969711, guid: 3ed173477e186df4e87e686fca6257fd, type: 3}
      propertyPath: m_RootOrder
      value: 5
      objectReference: {fileID: 0}
    - target: {fileID: 3267209798677969711, guid: 3ed173477e186df4e87e686fca6257fd, type: 3}
      propertyPath: m_LocalPosition.x
      value: 6.2881145
      objectReference: {fileID: 0}
    - target: {fileID: 3267209798677969711, guid: 3ed173477e186df4e87e686fca6257fd, type: 3}
      propertyPath: m_LocalPosition.y
      value: -6.6504
      objectReference: {fileID: 0}
    - target: {fileID: 3267209798677969711, guid: 3ed173477e186df4e87e686fca6257fd, type: 3}
      propertyPath: m_LocalPosition.z
      value: 59.47
      objectReference: {fileID: 0}
    - target: {fileID: 3267209798677969711, guid: 3ed173477e186df4e87e686fca6257fd, type: 3}
      propertyPath: m_LocalRotation.w
      value: 1
      objectReference: {fileID: 0}
    - target: {fileID: 3267209798677969711, guid: 3ed173477e186df4e87e686fca6257fd, type: 3}
      propertyPath: m_LocalRotation.x
      value: 0
      objectReference: {fileID: 0}
    - target: {fileID: 3267209798677969711, guid: 3ed173477e186df4e87e686fca6257fd, type: 3}
      propertyPath: m_LocalRotation.y
      value: 0
      objectReference: {fileID: 0}
    - target: {fileID: 3267209798677969711, guid: 3ed173477e186df4e87e686fca6257fd, type: 3}
      propertyPath: m_LocalRotation.z
      value: 0
      objectReference: {fileID: 0}
    - target: {fileID: 3267209798677969711, guid: 3ed173477e186df4e87e686fca6257fd, type: 3}
      propertyPath: m_LocalEulerAnglesHint.x
      value: 0
      objectReference: {fileID: 0}
    - target: {fileID: 3267209798677969711, guid: 3ed173477e186df4e87e686fca6257fd, type: 3}
      propertyPath: m_LocalEulerAnglesHint.y
      value: 0
      objectReference: {fileID: 0}
    - target: {fileID: 3267209798677969711, guid: 3ed173477e186df4e87e686fca6257fd, type: 3}
      propertyPath: m_LocalEulerAnglesHint.z
      value: 0
      objectReference: {fileID: 0}
    - target: {fileID: 6803971664933072451, guid: 3ed173477e186df4e87e686fca6257fd, type: 3}
      propertyPath: m_Name
      value: Env (3)
      objectReference: {fileID: 0}
    m_RemovedComponents: []
  m_SourcePrefab: {fileID: 100100000, guid: 3ed173477e186df4e87e686fca6257fd, type: 3}
--- !u!1001 &953520010
PrefabInstance:
  m_ObjectHideFlags: 0
  serializedVersion: 2
  m_Modification:
    m_TransformParent: {fileID: 0}
    m_Modifications:
    - target: {fileID: 3267209798677969711, guid: 3ed173477e186df4e87e686fca6257fd, type: 3}
      propertyPath: m_RootOrder
      value: 6
      objectReference: {fileID: 0}
    - target: {fileID: 3267209798677969711, guid: 3ed173477e186df4e87e686fca6257fd, type: 3}
      propertyPath: m_LocalPosition.x
      value: 30.48
      objectReference: {fileID: 0}
    - target: {fileID: 3267209798677969711, guid: 3ed173477e186df4e87e686fca6257fd, type: 3}
      propertyPath: m_LocalPosition.y
      value: -6.6504
      objectReference: {fileID: 0}
    - target: {fileID: 3267209798677969711, guid: 3ed173477e186df4e87e686fca6257fd, type: 3}
      propertyPath: m_LocalPosition.z
      value: -13.250256
      objectReference: {fileID: 0}
    - target: {fileID: 3267209798677969711, guid: 3ed173477e186df4e87e686fca6257fd, type: 3}
      propertyPath: m_LocalRotation.w
      value: 1
      objectReference: {fileID: 0}
    - target: {fileID: 3267209798677969711, guid: 3ed173477e186df4e87e686fca6257fd, type: 3}
      propertyPath: m_LocalRotation.x
      value: 0
      objectReference: {fileID: 0}
    - target: {fileID: 3267209798677969711, guid: 3ed173477e186df4e87e686fca6257fd, type: 3}
      propertyPath: m_LocalRotation.y
      value: 0
      objectReference: {fileID: 0}
    - target: {fileID: 3267209798677969711, guid: 3ed173477e186df4e87e686fca6257fd, type: 3}
      propertyPath: m_LocalRotation.z
      value: 0
      objectReference: {fileID: 0}
    - target: {fileID: 3267209798677969711, guid: 3ed173477e186df4e87e686fca6257fd, type: 3}
      propertyPath: m_LocalEulerAnglesHint.x
      value: 0
      objectReference: {fileID: 0}
    - target: {fileID: 3267209798677969711, guid: 3ed173477e186df4e87e686fca6257fd, type: 3}
      propertyPath: m_LocalEulerAnglesHint.y
      value: 0
      objectReference: {fileID: 0}
    - target: {fileID: 3267209798677969711, guid: 3ed173477e186df4e87e686fca6257fd, type: 3}
      propertyPath: m_LocalEulerAnglesHint.z
      value: 0
      objectReference: {fileID: 0}
    - target: {fileID: 6803971664933072451, guid: 3ed173477e186df4e87e686fca6257fd, type: 3}
      propertyPath: m_Name
      value: Env (4)
      objectReference: {fileID: 0}
    m_RemovedComponents: []
  m_SourcePrefab: {fileID: 100100000, guid: 3ed173477e186df4e87e686fca6257fd, type: 3}
--- !u!1 &963194225
GameObject:
  m_ObjectHideFlags: 0
  m_CorrespondingSourceObject: {fileID: 0}
  m_PrefabInstance: {fileID: 0}
  m_PrefabAsset: {fileID: 0}
  serializedVersion: 6
  m_Component:
  - component: {fileID: 963194228}
  - component: {fileID: 963194227}
  - component: {fileID: 963194226}
  m_Layer: 0
  m_Name: Main Camera
  m_TagString: MainCamera
  m_Icon: {fileID: 0}
  m_NavMeshLayer: 0
  m_StaticEditorFlags: 0
  m_IsActive: 1
--- !u!81 &963194226
AudioListener:
  m_ObjectHideFlags: 0
  m_CorrespondingSourceObject: {fileID: 0}
  m_PrefabInstance: {fileID: 0}
  m_PrefabAsset: {fileID: 0}
  m_GameObject: {fileID: 963194225}
  m_Enabled: 1
--- !u!20 &963194227
Camera:
  m_ObjectHideFlags: 0
  m_CorrespondingSourceObject: {fileID: 0}
  m_PrefabInstance: {fileID: 0}
  m_PrefabAsset: {fileID: 0}
  m_GameObject: {fileID: 963194225}
  m_Enabled: 1
  serializedVersion: 2
  m_ClearFlags: 1
  m_BackGroundColor: {r: 0.19215687, g: 0.3019608, b: 0.4745098, a: 0}
  m_projectionMatrixMode: 1
  m_GateFitMode: 2
  m_FOVAxisMode: 0
  m_SensorSize: {x: 36, y: 24}
  m_LensShift: {x: 0, y: 0}
  m_FocalLength: 50
  m_NormalizedViewPortRect:
    serializedVersion: 2
    x: 0
    y: 0
    width: 1
    height: 1
  near clip plane: 0.3
  far clip plane: 1000
  field of view: 60
  orthographic: 0
  orthographic size: 5
  m_Depth: -1
  m_CullingMask:
    serializedVersion: 2
    m_Bits: 4294967295
  m_RenderingPath: -1
  m_TargetTexture: {fileID: 0}
  m_TargetDisplay: 0
  m_TargetEye: 3
  m_HDR: 1
  m_AllowMSAA: 1
  m_AllowDynamicResolution: 0
  m_ForceIntoRT: 0
  m_OcclusionCulling: 1
  m_StereoConvergence: 10
  m_StereoSeparation: 0.022
--- !u!4 &963194228
Transform:
  m_ObjectHideFlags: 0
  m_CorrespondingSourceObject: {fileID: 0}
  m_PrefabInstance: {fileID: 0}
  m_PrefabAsset: {fileID: 0}
  m_GameObject: {fileID: 963194225}
  m_LocalRotation: {x: -0.08774986, y: 0.89133185, z: -0.19586918, w: -0.39932805}
  m_LocalPosition: {x: 79.702835, y: 35.76117, z: 97.051605}
  m_LocalScale: {x: 1, y: 1, z: 1}
  m_Children: []
  m_Father: {fileID: 0}
  m_RootOrder: 0
  m_LocalEulerAnglesHint: {x: 0, y: 0, z: 0}
--- !u!1001 &1148489874
PrefabInstance:
  m_ObjectHideFlags: 0
  serializedVersion: 2
  m_Modification:
    m_TransformParent: {fileID: 0}
    m_Modifications:
    - target: {fileID: 3267209798677969711, guid: 3ed173477e186df4e87e686fca6257fd, type: 3}
      propertyPath: m_RootOrder
      value: 3
      objectReference: {fileID: 0}
    - target: {fileID: 3267209798677969711, guid: 3ed173477e186df4e87e686fca6257fd, type: 3}
      propertyPath: m_LocalPosition.x
      value: 6.2881145
      objectReference: {fileID: 0}
    - target: {fileID: 3267209798677969711, guid: 3ed173477e186df4e87e686fca6257fd, type: 3}
      propertyPath: m_LocalPosition.y
      value: -6.6504
      objectReference: {fileID: 0}
    - target: {fileID: 3267209798677969711, guid: 3ed173477e186df4e87e686fca6257fd, type: 3}
      propertyPath: m_LocalPosition.z
      value: 13.57
      objectReference: {fileID: 0}
    - target: {fileID: 3267209798677969711, guid: 3ed173477e186df4e87e686fca6257fd, type: 3}
      propertyPath: m_LocalRotation.w
      value: 1
      objectReference: {fileID: 0}
    - target: {fileID: 3267209798677969711, guid: 3ed173477e186df4e87e686fca6257fd, type: 3}
      propertyPath: m_LocalRotation.x
      value: 0
      objectReference: {fileID: 0}
    - target: {fileID: 3267209798677969711, guid: 3ed173477e186df4e87e686fca6257fd, type: 3}
      propertyPath: m_LocalRotation.y
      value: 0
      objectReference: {fileID: 0}
    - target: {fileID: 3267209798677969711, guid: 3ed173477e186df4e87e686fca6257fd, type: 3}
      propertyPath: m_LocalRotation.z
      value: 0
      objectReference: {fileID: 0}
    - target: {fileID: 3267209798677969711, guid: 3ed173477e186df4e87e686fca6257fd, type: 3}
      propertyPath: m_LocalEulerAnglesHint.x
      value: 0
      objectReference: {fileID: 0}
    - target: {fileID: 3267209798677969711, guid: 3ed173477e186df4e87e686fca6257fd, type: 3}
      propertyPath: m_LocalEulerAnglesHint.y
      value: 0
      objectReference: {fileID: 0}
    - target: {fileID: 3267209798677969711, guid: 3ed173477e186df4e87e686fca6257fd, type: 3}
      propertyPath: m_LocalEulerAnglesHint.z
      value: 0
      objectReference: {fileID: 0}
    - target: {fileID: 6803971664933072451, guid: 3ed173477e186df4e87e686fca6257fd, type: 3}
      propertyPath: m_Name
      value: Env (1)
      objectReference: {fileID: 0}
    m_RemovedComponents: []
  m_SourcePrefab: {fileID: 100100000, guid: 3ed173477e186df4e87e686fca6257fd, type: 3}
--- !u!1001 &1300432101
PrefabInstance:
  m_ObjectHideFlags: 0
  serializedVersion: 2
  m_Modification:
    m_TransformParent: {fileID: 0}
    m_Modifications:
    - target: {fileID: 3267209798677969711, guid: 3ed173477e186df4e87e686fca6257fd, type: 3}
      propertyPath: m_RootOrder
      value: 8
      objectReference: {fileID: 0}
    - target: {fileID: 3267209798677969711, guid: 3ed173477e186df4e87e686fca6257fd, type: 3}
      propertyPath: m_LocalPosition.x
      value: 30.48
      objectReference: {fileID: 0}
    - target: {fileID: 3267209798677969711, guid: 3ed173477e186df4e87e686fca6257fd, type: 3}
      propertyPath: m_LocalPosition.y
      value: -6.6504
      objectReference: {fileID: 0}
    - target: {fileID: 3267209798677969711, guid: 3ed173477e186df4e87e686fca6257fd, type: 3}
      propertyPath: m_LocalPosition.z
      value: 39.43
      objectReference: {fileID: 0}
    - target: {fileID: 3267209798677969711, guid: 3ed173477e186df4e87e686fca6257fd, type: 3}
      propertyPath: m_LocalRotation.w
      value: 1
      objectReference: {fileID: 0}
    - target: {fileID: 3267209798677969711, guid: 3ed173477e186df4e87e686fca6257fd, type: 3}
      propertyPath: m_LocalRotation.x
      value: 0
      objectReference: {fileID: 0}
    - target: {fileID: 3267209798677969711, guid: 3ed173477e186df4e87e686fca6257fd, type: 3}
      propertyPath: m_LocalRotation.y
      value: 0
      objectReference: {fileID: 0}
    - target: {fileID: 3267209798677969711, guid: 3ed173477e186df4e87e686fca6257fd, type: 3}
      propertyPath: m_LocalRotation.z
      value: 0
      objectReference: {fileID: 0}
    - target: {fileID: 3267209798677969711, guid: 3ed173477e186df4e87e686fca6257fd, type: 3}
      propertyPath: m_LocalEulerAnglesHint.x
      value: 0
      objectReference: {fileID: 0}
    - target: {fileID: 3267209798677969711, guid: 3ed173477e186df4e87e686fca6257fd, type: 3}
      propertyPath: m_LocalEulerAnglesHint.y
      value: 0
      objectReference: {fileID: 0}
    - target: {fileID: 3267209798677969711, guid: 3ed173477e186df4e87e686fca6257fd, type: 3}
      propertyPath: m_LocalEulerAnglesHint.z
      value: 0
      objectReference: {fileID: 0}
    - target: {fileID: 6803971664933072451, guid: 3ed173477e186df4e87e686fca6257fd, type: 3}
      propertyPath: m_Name
      value: Env (6)
      objectReference: {fileID: 0}
    m_RemovedComponents: []
  m_SourcePrefab: {fileID: 100100000, guid: 3ed173477e186df4e87e686fca6257fd, type: 3}
--- !u!1001 &1448183971
PrefabInstance:
  m_ObjectHideFlags: 0
  serializedVersion: 2
  m_Modification:
    m_TransformParent: {fileID: 0}
    m_Modifications:
    - target: {fileID: 3267209798677969711, guid: 3ed173477e186df4e87e686fca6257fd, type: 3}
      propertyPath: m_RootOrder
      value: 7
      objectReference: {fileID: 0}
    - target: {fileID: 3267209798677969711, guid: 3ed173477e186df4e87e686fca6257fd, type: 3}
      propertyPath: m_LocalPosition.x
      value: 30.48
      objectReference: {fileID: 0}
    - target: {fileID: 3267209798677969711, guid: 3ed173477e186df4e87e686fca6257fd, type: 3}
      propertyPath: m_LocalPosition.y
      value: -6.6504
      objectReference: {fileID: 0}
    - target: {fileID: 3267209798677969711, guid: 3ed173477e186df4e87e686fca6257fd, type: 3}
      propertyPath: m_LocalPosition.z
      value: 13.57
      objectReference: {fileID: 0}
    - target: {fileID: 3267209798677969711, guid: 3ed173477e186df4e87e686fca6257fd, type: 3}
      propertyPath: m_LocalRotation.w
      value: 1
      objectReference: {fileID: 0}
    - target: {fileID: 3267209798677969711, guid: 3ed173477e186df4e87e686fca6257fd, type: 3}
      propertyPath: m_LocalRotation.x
      value: 0
      objectReference: {fileID: 0}
    - target: {fileID: 3267209798677969711, guid: 3ed173477e186df4e87e686fca6257fd, type: 3}
      propertyPath: m_LocalRotation.y
      value: 0
      objectReference: {fileID: 0}
    - target: {fileID: 3267209798677969711, guid: 3ed173477e186df4e87e686fca6257fd, type: 3}
      propertyPath: m_LocalRotation.z
      value: 0
      objectReference: {fileID: 0}
    - target: {fileID: 3267209798677969711, guid: 3ed173477e186df4e87e686fca6257fd, type: 3}
      propertyPath: m_LocalEulerAnglesHint.x
      value: 0
      objectReference: {fileID: 0}
    - target: {fileID: 3267209798677969711, guid: 3ed173477e186df4e87e686fca6257fd, type: 3}
      propertyPath: m_LocalEulerAnglesHint.y
      value: 0
      objectReference: {fileID: 0}
    - target: {fileID: 3267209798677969711, guid: 3ed173477e186df4e87e686fca6257fd, type: 3}
      propertyPath: m_LocalEulerAnglesHint.z
      value: 0
      objectReference: {fileID: 0}
    - target: {fileID: 6803971664933072451, guid: 3ed173477e186df4e87e686fca6257fd, type: 3}
      propertyPath: m_Name
      value: Env (5)
      objectReference: {fileID: 0}
    m_RemovedComponents: []
  m_SourcePrefab: {fileID: 100100000, guid: 3ed173477e186df4e87e686fca6257fd, type: 3}
--- !u!1001 &1784417024
PrefabInstance:
  m_ObjectHideFlags: 0
  serializedVersion: 2
  m_Modification:
    m_TransformParent: {fileID: 0}
    m_Modifications:
    - target: {fileID: 3267209798677969711, guid: 3ed173477e186df4e87e686fca6257fd, type: 3}
      propertyPath: m_RootOrder
      value: 4
      objectReference: {fileID: 0}
    - target: {fileID: 3267209798677969711, guid: 3ed173477e186df4e87e686fca6257fd, type: 3}
      propertyPath: m_LocalPosition.x
      value: 6.2881145
      objectReference: {fileID: 0}
    - target: {fileID: 3267209798677969711, guid: 3ed173477e186df4e87e686fca6257fd, type: 3}
      propertyPath: m_LocalPosition.y
      value: -6.6504
      objectReference: {fileID: 0}
    - target: {fileID: 3267209798677969711, guid: 3ed173477e186df4e87e686fca6257fd, type: 3}
      propertyPath: m_LocalPosition.z
      value: 39.43
      objectReference: {fileID: 0}
    - target: {fileID: 3267209798677969711, guid: 3ed173477e186df4e87e686fca6257fd, type: 3}
      propertyPath: m_LocalRotation.w
      value: 1
      objectReference: {fileID: 0}
    - target: {fileID: 3267209798677969711, guid: 3ed173477e186df4e87e686fca6257fd, type: 3}
      propertyPath: m_LocalRotation.x
      value: 0
      objectReference: {fileID: 0}
    - target: {fileID: 3267209798677969711, guid: 3ed173477e186df4e87e686fca6257fd, type: 3}
      propertyPath: m_LocalRotation.y
      value: 0
      objectReference: {fileID: 0}
    - target: {fileID: 3267209798677969711, guid: 3ed173477e186df4e87e686fca6257fd, type: 3}
      propertyPath: m_LocalRotation.z
      value: 0
      objectReference: {fileID: 0}
    - target: {fileID: 3267209798677969711, guid: 3ed173477e186df4e87e686fca6257fd, type: 3}
      propertyPath: m_LocalEulerAnglesHint.x
      value: 0
      objectReference: {fileID: 0}
    - target: {fileID: 3267209798677969711, guid: 3ed173477e186df4e87e686fca6257fd, type: 3}
      propertyPath: m_LocalEulerAnglesHint.y
      value: 0
      objectReference: {fileID: 0}
    - target: {fileID: 3267209798677969711, guid: 3ed173477e186df4e87e686fca6257fd, type: 3}
      propertyPath: m_LocalEulerAnglesHint.z
      value: 0
      objectReference: {fileID: 0}
    - target: {fileID: 6803971664933072451, guid: 3ed173477e186df4e87e686fca6257fd, type: 3}
      propertyPath: m_Name
      value: Env (2)
      objectReference: {fileID: 0}
    m_RemovedComponents: []
  m_SourcePrefab: {fileID: 100100000, guid: 3ed173477e186df4e87e686fca6257fd, type: 3}
--- !u!1001 &1948999479
PrefabInstance:
  m_ObjectHideFlags: 0
  serializedVersion: 2
  m_Modification:
    m_TransformParent: {fileID: 0}
    m_Modifications:
    - target: {fileID: 3267209798677969711, guid: 3ed173477e186df4e87e686fca6257fd, type: 3}
      propertyPath: m_RootOrder
      value: 12
      objectReference: {fileID: 0}
    - target: {fileID: 3267209798677969711, guid: 3ed173477e186df4e87e686fca6257fd, type: 3}
      propertyPath: m_LocalPosition.x
      value: 53.6
      objectReference: {fileID: 0}
    - target: {fileID: 3267209798677969711, guid: 3ed173477e186df4e87e686fca6257fd, type: 3}
      propertyPath: m_LocalPosition.y
      value: -6.6504
      objectReference: {fileID: 0}
    - target: {fileID: 3267209798677969711, guid: 3ed173477e186df4e87e686fca6257fd, type: 3}
      propertyPath: m_LocalPosition.z
      value: 13.57
      objectReference: {fileID: 0}
    - target: {fileID: 3267209798677969711, guid: 3ed173477e186df4e87e686fca6257fd, type: 3}
      propertyPath: m_LocalRotation.w
      value: 1
      objectReference: {fileID: 0}
    - target: {fileID: 3267209798677969711, guid: 3ed173477e186df4e87e686fca6257fd, type: 3}
      propertyPath: m_LocalRotation.x
      value: 0
      objectReference: {fileID: 0}
    - target: {fileID: 3267209798677969711, guid: 3ed173477e186df4e87e686fca6257fd, type: 3}
      propertyPath: m_LocalRotation.y
      value: 0
      objectReference: {fileID: 0}
    - target: {fileID: 3267209798677969711, guid: 3ed173477e186df4e87e686fca6257fd, type: 3}
      propertyPath: m_LocalRotation.z
      value: 0
      objectReference: {fileID: 0}
    - target: {fileID: 3267209798677969711, guid: 3ed173477e186df4e87e686fca6257fd, type: 3}
      propertyPath: m_LocalEulerAnglesHint.x
      value: 0
      objectReference: {fileID: 0}
    - target: {fileID: 3267209798677969711, guid: 3ed173477e186df4e87e686fca6257fd, type: 3}
      propertyPath: m_LocalEulerAnglesHint.y
      value: 0
      objectReference: {fileID: 0}
    - target: {fileID: 3267209798677969711, guid: 3ed173477e186df4e87e686fca6257fd, type: 3}
      propertyPath: m_LocalEulerAnglesHint.z
      value: 0
      objectReference: {fileID: 0}
    - target: {fileID: 6803971664933072451, guid: 3ed173477e186df4e87e686fca6257fd, type: 3}
      propertyPath: m_Name
      value: Env (11)
      objectReference: {fileID: 0}
    m_RemovedComponents: []
  m_SourcePrefab: {fileID: 100100000, guid: 3ed173477e186df4e87e686fca6257fd, type: 3}
--- !u!1001 &1993141632
PrefabInstance:
  m_ObjectHideFlags: 0
  serializedVersion: 2
  m_Modification:
    m_TransformParent: {fileID: 0}
    m_Modifications:
    - target: {fileID: 3267209798677969711, guid: 3ed173477e186df4e87e686fca6257fd, type: 3}
      propertyPath: m_RootOrder
      value: 11
      objectReference: {fileID: 0}
    - target: {fileID: 3267209798677969711, guid: 3ed173477e186df4e87e686fca6257fd, type: 3}
      propertyPath: m_LocalPosition.x
      value: 53.6
      objectReference: {fileID: 0}
    - target: {fileID: 3267209798677969711, guid: 3ed173477e186df4e87e686fca6257fd, type: 3}
      propertyPath: m_LocalPosition.y
      value: -6.6504
      objectReference: {fileID: 0}
    - target: {fileID: 3267209798677969711, guid: 3ed173477e186df4e87e686fca6257fd, type: 3}
      propertyPath: m_LocalPosition.z
      value: 39.43
      objectReference: {fileID: 0}
    - target: {fileID: 3267209798677969711, guid: 3ed173477e186df4e87e686fca6257fd, type: 3}
      propertyPath: m_LocalRotation.w
      value: 1
      objectReference: {fileID: 0}
    - target: {fileID: 3267209798677969711, guid: 3ed173477e186df4e87e686fca6257fd, type: 3}
      propertyPath: m_LocalRotation.x
      value: 0
      objectReference: {fileID: 0}
    - target: {fileID: 3267209798677969711, guid: 3ed173477e186df4e87e686fca6257fd, type: 3}
      propertyPath: m_LocalRotation.y
      value: 0
      objectReference: {fileID: 0}
    - target: {fileID: 3267209798677969711, guid: 3ed173477e186df4e87e686fca6257fd, type: 3}
      propertyPath: m_LocalRotation.z
      value: 0
      objectReference: {fileID: 0}
    - target: {fileID: 3267209798677969711, guid: 3ed173477e186df4e87e686fca6257fd, type: 3}
      propertyPath: m_LocalEulerAnglesHint.x
      value: 0
      objectReference: {fileID: 0}
    - target: {fileID: 3267209798677969711, guid: 3ed173477e186df4e87e686fca6257fd, type: 3}
      propertyPath: m_LocalEulerAnglesHint.y
      value: 0
      objectReference: {fileID: 0}
    - target: {fileID: 3267209798677969711, guid: 3ed173477e186df4e87e686fca6257fd, type: 3}
      propertyPath: m_LocalEulerAnglesHint.z
      value: 0
      objectReference: {fileID: 0}
    - target: {fileID: 6803971664933072451, guid: 3ed173477e186df4e87e686fca6257fd, type: 3}
      propertyPath: m_Name
      value: Env (9)
      objectReference: {fileID: 0}
    m_RemovedComponents: []
  m_SourcePrefab: {fileID: 100100000, guid: 3ed173477e186df4e87e686fca6257fd, type: 3}
--- !u!1001 &2036950038
PrefabInstance:
  m_ObjectHideFlags: 0
  serializedVersion: 2
  m_Modification:
    m_TransformParent: {fileID: 0}
    m_Modifications:
    - target: {fileID: 3267209798677969711, guid: 3ed173477e186df4e87e686fca6257fd, type: 3}
      propertyPath: m_RootOrder
      value: 10
      objectReference: {fileID: 0}
    - target: {fileID: 3267209798677969711, guid: 3ed173477e186df4e87e686fca6257fd, type: 3}
      propertyPath: m_LocalPosition.x
      value: 53.6
      objectReference: {fileID: 0}
    - target: {fileID: 3267209798677969711, guid: 3ed173477e186df4e87e686fca6257fd, type: 3}
      propertyPath: m_LocalPosition.y
      value: -6.6504
      objectReference: {fileID: 0}
    - target: {fileID: 3267209798677969711, guid: 3ed173477e186df4e87e686fca6257fd, type: 3}
      propertyPath: m_LocalPosition.z
      value: 59.47
      objectReference: {fileID: 0}
    - target: {fileID: 3267209798677969711, guid: 3ed173477e186df4e87e686fca6257fd, type: 3}
      propertyPath: m_LocalRotation.w
      value: 1
      objectReference: {fileID: 0}
    - target: {fileID: 3267209798677969711, guid: 3ed173477e186df4e87e686fca6257fd, type: 3}
      propertyPath: m_LocalRotation.x
      value: 0
      objectReference: {fileID: 0}
    - target: {fileID: 3267209798677969711, guid: 3ed173477e186df4e87e686fca6257fd, type: 3}
      propertyPath: m_LocalRotation.y
      value: 0
      objectReference: {fileID: 0}
    - target: {fileID: 3267209798677969711, guid: 3ed173477e186df4e87e686fca6257fd, type: 3}
      propertyPath: m_LocalRotation.z
      value: 0
      objectReference: {fileID: 0}
    - target: {fileID: 3267209798677969711, guid: 3ed173477e186df4e87e686fca6257fd, type: 3}
      propertyPath: m_LocalEulerAnglesHint.x
      value: 0
      objectReference: {fileID: 0}
    - target: {fileID: 3267209798677969711, guid: 3ed173477e186df4e87e686fca6257fd, type: 3}
      propertyPath: m_LocalEulerAnglesHint.y
      value: 0
      objectReference: {fileID: 0}
    - target: {fileID: 3267209798677969711, guid: 3ed173477e186df4e87e686fca6257fd, type: 3}
      propertyPath: m_LocalEulerAnglesHint.z
      value: 0
      objectReference: {fileID: 0}
    - target: {fileID: 6803971664933072451, guid: 3ed173477e186df4e87e686fca6257fd, type: 3}
      propertyPath: m_Name
      value: Env (10)
      objectReference: {fileID: 0}
    m_RemovedComponents: []
  m_SourcePrefab: {fileID: 100100000, guid: 3ed173477e186df4e87e686fca6257fd, type: 3}
--- !u!1001 &2835009208799316021
PrefabInstance:
  m_ObjectHideFlags: 0
  serializedVersion: 2
  m_Modification:
    m_TransformParent: {fileID: 0}
    m_Modifications:
    - target: {fileID: 3267209798677969711, guid: 3ed173477e186df4e87e686fca6257fd, type: 3}
      propertyPath: m_RootOrder
      value: 2
      objectReference: {fileID: 0}
    - target: {fileID: 3267209798677969711, guid: 3ed173477e186df4e87e686fca6257fd, type: 3}
      propertyPath: m_LocalPosition.x
      value: 6.2881145
      objectReference: {fileID: 0}
    - target: {fileID: 3267209798677969711, guid: 3ed173477e186df4e87e686fca6257fd, type: 3}
      propertyPath: m_LocalPosition.y
      value: -6.6504
      objectReference: {fileID: 0}
    - target: {fileID: 3267209798677969711, guid: 3ed173477e186df4e87e686fca6257fd, type: 3}
      propertyPath: m_LocalPosition.z
      value: -13.250256
      objectReference: {fileID: 0}
    - target: {fileID: 3267209798677969711, guid: 3ed173477e186df4e87e686fca6257fd, type: 3}
      propertyPath: m_LocalRotation.w
      value: 1
      objectReference: {fileID: 0}
    - target: {fileID: 3267209798677969711, guid: 3ed173477e186df4e87e686fca6257fd, type: 3}
      propertyPath: m_LocalRotation.x
      value: 0
      objectReference: {fileID: 0}
    - target: {fileID: 3267209798677969711, guid: 3ed173477e186df4e87e686fca6257fd, type: 3}
      propertyPath: m_LocalRotation.y
      value: 0
      objectReference: {fileID: 0}
    - target: {fileID: 3267209798677969711, guid: 3ed173477e186df4e87e686fca6257fd, type: 3}
      propertyPath: m_LocalRotation.z
      value: 0
      objectReference: {fileID: 0}
    - target: {fileID: 3267209798677969711, guid: 3ed173477e186df4e87e686fca6257fd, type: 3}
      propertyPath: m_LocalEulerAnglesHint.x
      value: 0
      objectReference: {fileID: 0}
    - target: {fileID: 3267209798677969711, guid: 3ed173477e186df4e87e686fca6257fd, type: 3}
      propertyPath: m_LocalEulerAnglesHint.y
      value: 0
      objectReference: {fileID: 0}
    - target: {fileID: 3267209798677969711, guid: 3ed173477e186df4e87e686fca6257fd, type: 3}
      propertyPath: m_LocalEulerAnglesHint.z
      value: 0
      objectReference: {fileID: 0}
    - target: {fileID: 6803971664933072451, guid: 3ed173477e186df4e87e686fca6257fd, type: 3}
      propertyPath: m_Name
      value: Env
      objectReference: {fileID: 0}
    m_RemovedComponents: []
  m_SourcePrefab: {fileID: 100100000, guid: 3ed173477e186df4e87e686fca6257fd, type: 3}
